MINI-PROJECT 2: EDA and correlation analysis – InsightNet Apr 2026
…
edf <- epidata_nhsn_state |>
  as_epi_df()

Check out your dataset! Type the object’s name for a quick look. Then use summary() to view the dataset’s metadata and overall statistics. For information on what each section means, visit https://cmu-delphi.github.io/epiprocess/dev/reference/print.epi_df.html

edf

An `epi_df` object, 3,024 x 4 with metadata:
* geo_type  = state
* time_type = week
* as_of     = 2026-04-19
Latency (lag between last available observation and epi_df's as_of, by time series):
* lag  = 15–23 weeks (see summary() for per-signal details)

# A tibble: 3,024 × 4
   geo_value time_value value issue     
 * <chr>     <date>     <dbl> <date>    
 1 ak        2024-12-29    37 2026-04-19
 2 al        2024-12-29   171 2026-04-19
 3 ar        2024-12-29   108 2026-04-19
 4 as        2024-12-29     3 2026-04-19
 5 az        2024-12-29   208 2026-04-19
 6 ca        2024-12-29   943 2026-04-19
 7 co        2024-12-29   168 2026-04-19
 8 ct        2024-12-29   204 2026-04-19
 9 dc        2024-12-29     3 2026-04-19
10 de        2024-12-29   155 2026-04-19
# ℹ 3,014 more rows
…
edf |>
  select(geo_value, time_value, value, value_3wav, value_8wav, value_3wmean_center, value_4wsum) |>
  print(n = 10)

An `epi_df` object, 3,024 x 7 with metadata:
* geo_type  = state
* time_type = week
* as_of     = 2026-04-19
Latency (lag between last available observation and epi_df's as_of, by time series):
* lag across all time series = 15–28 weeks (see summary() for per-signal details)

# A tibble: 3,024 × 7
   geo_value time_value value value_3wav value_8wav value_3wmean_center
   <chr>     <date>     <dbl>      <dbl>      <dbl>               <dbl>
 1 ak        2024-12-29    37       NA         NA                  NA  
 2 ak        2025-01-05    24       NA         NA                  24.7
 3 ak        2025-01-12    13       24.7       NA                  19.7
 4 ak        2025-01-19    22       19.7       NA                  21.7
 5 ak        2025-01-26    30       21.7       NA                  22.3
 6 ak        2025-02-02    15       22.3       NA                  19.3
 7 ak        2025-02-09    13       19.3       NA                  19  
 8 ak        2025-02-16    29       19         22.9                23  
 9 ak        2025-02-23    27       23         21.6                25  
10 ak        2025-03-02    19       25         21                  19.3
# ℹ 3,014 more rows
# ℹ 1 more variable: value_4wsum <dbl>
…
edf_joined

An `epi_df` object, 16,896 x 4 with metadata:
* geo_type  = state
* time_type = week
* as_of     = 2026-04-27 08:48:25.888734
Latency (lag between last available observation and epi_df's as_of, by time series):
* lag across all time series = 3–50 weeks (see summary() for per-signal details)
* Empty time series detected
# A tibble: 16,896 × 4
   geo_value time_value flu_death_rate  wili
   <chr>     <date>              <dbl> <dbl>
 1 al        2020-01-26          0.286  9.03
 2 az        2020-01-26          0.179  4.43
 3 ca        2020-01-26          0.152  4.98
 4 ct        2020-01-26          0.337  9.09
 5 dc        2020-01-26          0      3.41
 6 de        2020-01-26          0      2.60
 7 fl        2020-01-26          0.163 NA   
 8 hi        2020-01-26          0      4.48
 9 il        2020-01-26          0.126  6.72
10 ma        2020-01-26          0.203  5.55
# ℹ 16,886 more rows
…
Set cor_by to geo_value and time_value to estimate the correlation over time within the same location (per-location temporal correlation) and across regions at a specific moment (correlation over time).

You can also vary the method (using "pearson" for linear relationship or "spearman" for ranked-based correlation).

TipHint

You can find the “correlation” vignettes here.

# Per-location temporal correlation
epi_cor(edf_joined, flu_death_rate, wili,
  cor_by = geo_value
)

# A tibble: 52 × 2
   geo_value    cor
   <chr>      <dbl>
 1 ak        NA    
 2 al         0.869
 3 ar         0.768
 4 az         0.832
 5 ca         0.801
 6 co         0.821
 7 ct         0.775
 8 dc        NA    
 9 de         0.434
10 fl         0.558
# ℹ 42 more rows

epi_cor(edf_joined, flu_death_rate, wili,
  cor_by = time_value, method = "spearman"
) |>
  drop_na()

# A tibble: 99 × 2
   time_value    cor
   <date>      <dbl>
 1 2020-01-26  0.556
 2 2020-02-02  0.434
 3 2020-02-09  0.436
 4 2020-02-16  0.322
 5 2020-02-23  0.318
 6 2020-03-01  0.11 
 7 2020-03-08  0.174
 8 2020-03-15 -0.252
 9 2020-03-22  0.352
10 2020-03-29  0.397
# ℹ 89 more rows

epi_cor(edf_joined, flu_death_rate, wili,
  cor_by = geo_value, method = "spearman"
) |>
  drop_na()

# A tibble: 46 × 2
   geo_value   cor
   <chr>     <dbl>
 1 al        0.658
 2 ar        0.489
 3 az        0.696
 4 ca        0.899
 5 co        0.654
 6 ct        0.487
 7 de        0.166
 8 fl        0.537
 9 ga        0.763
10 ia        0.547
# ℹ 36 more rows
…
Use revision_analysis() to explore how signals change across revisions.

TipHint

Use $revision_behavior on the object returned by revision_analysis() to access the summary statistics dataframe for each revision date (i.e. “key”).

rev_result <- revision_analysis(archive_data, value)
rev_result$revision_behavior

# A tibble: 488 × 11
   time_value geo_value n_revisions min_lag max_lag  lag_near_latest spread
   <date>     <chr>           <dbl> <drtn>  <drtn>   <drtn>           <dbl>
 1 2020-02-01 mi                 17 96 days 129 days 117 days         0.108
 2 2020-02-02 mi                 17 95 days 128 days 116 days         0.129
 3 2020-02-03 mi                 17 94 days 127 days 115 days         0.233
 4 2020-02-04 mi                 17 93 days 126 days 114 days         0.265
 5 2020-02-05 mi                 17 92 days 125 days 113 days         0.238
 6 2020-02-06 mi                 17 91 days 124 days 112 days         0.255
 7 2020-02-07 mi                 17 90 days 123 days 111 days         0.250
 8 2020-02-08 mi                 17 89 days 122 days 110 days         0.209
 9 2020-02-09 mi                 17 88 days 121 days 109 days         0.268
10 2020-02-10 mi                 17 87 days 120 days 108 days         0.247
# ℹ 478 more rows
# ℹ 4 more variables: rel_spread <dbl>, min_value <dbl>, max_value <dbl>,
#   median_value <dbl>
…
