MINI-PROJECT 3: Customizing models – InsightNet Apr 2026
…
fcst_climate <- climatological_forecaster(
    fluview |> filter(time_value < "2023-10-08"),
    outcome = "ili",
    args_list = climate_args_list(
        forecast_horizon = seq(0, 28, 7),
        time_type = "week",
        quantile_by_key = "geo_value",
        forecast_date = as.Date("2023-10-08")
    )
)
fcst_climate$predictions

# A tibble: 50 × 5
   geo_value forecast_date target_date .pred .pred_distn
   <chr>     <date>        <date>      <dbl>   <qtls(7)>
 1 hhs1      2023-10-08    2023-10-08  0.658     [0.648]
 2 hhs10     2023-10-08    2023-10-08  1.03       [1.03]
 3 hhs2      2023-10-08    2023-10-08  1.46       [1.45]
 4 hhs3      2023-10-08    2023-10-08  1.37       [1.37]
 5 hhs4      2023-10-08    2023-10-08  1.30       [1.27]
 6 hhs5      2023-10-08    2023-10-08  1.16       [1.14]
 7 hhs6      2023-10-08    2023-10-08  1.90        [1.9]
 8 hhs7      2023-10-08    2023-10-08  0.927     [0.938]
 9 hhs8      2023-10-08    2023-10-08  0.845     [0.834]
10 hhs9      2023-10-08    2023-10-08  1.42        [1.4]
# ℹ 40 more rows
…
